…
<br>

With the bathymetry data assigned the proper `int_along` value, we can
group bathymetry by the grid Interval and calculate the mean depth of
each grid Interval.

``` r
( bot_ints <- bot %>%
  group_by(int_along_b) %>%
  summarize(dpth_mean = mean(Depth)) %>%
  ungroup() )
```

    ## # A tibble: 363 x 2
    ##    int_along_b dpth_mean
    ##          <dbl>     <dbl>
    ##  1          14     2115.
    ##  2          15     2111.
    ##  3          16     2105.
    ##  4          17     2100.
    ##  5          18     2099.
    ##  6          19     2100.
    ##  7          20     2098.
    ##  8          21     2089.
    ##  9          22     2078.
    ## 10          23     2069.
    ## # ... with 353 more rows
…
